[2024-01-16T16:26:24.744+0100] {processor.py:161} INFO - Started process (PID=29872) to work on /home/ensai/Documents/DATAOPS/projet-dataops-conso-electricite/apache_venv/lib/python3.8/site-packages/airflow/example_dags/example_branch_day_of_week_operator.py
[2024-01-16T16:26:24.744+0100] {processor.py:830} INFO - Processing file /home/ensai/Documents/DATAOPS/projet-dataops-conso-electricite/apache_venv/lib/python3.8/site-packages/airflow/example_dags/example_branch_day_of_week_operator.py for tasks to queue
[2024-01-16T16:26:24.745+0100] {logging_mixin.py:188} INFO - [2024-01-16T16:26:24.745+0100] {dagbag.py:538} INFO - Filling up the DagBag from /home/ensai/Documents/DATAOPS/projet-dataops-conso-electricite/apache_venv/lib/python3.8/site-packages/airflow/example_dags/example_branch_day_of_week_operator.py
[2024-01-16T16:26:24.751+0100] {processor.py:840} INFO - DAG(s) 'example_weekday_branch_operator' retrieved from /home/ensai/Documents/DATAOPS/projet-dataops-conso-electricite/apache_venv/lib/python3.8/site-packages/airflow/example_dags/example_branch_day_of_week_operator.py
[2024-01-16T16:26:24.838+0100] {logging_mixin.py:188} INFO - [2024-01-16T16:26:24.837+0100] {override.py:1769} INFO - Created Permission View: can edit on DAG:example_weekday_branch_operator
[2024-01-16T16:26:24.850+0100] {logging_mixin.py:188} INFO - [2024-01-16T16:26:24.850+0100] {override.py:1769} INFO - Created Permission View: can delete on DAG:example_weekday_branch_operator
[2024-01-16T16:26:24.858+0100] {logging_mixin.py:188} INFO - [2024-01-16T16:26:24.857+0100] {override.py:1769} INFO - Created Permission View: can read on DAG:example_weekday_branch_operator
[2024-01-16T16:26:24.858+0100] {logging_mixin.py:188} INFO - [2024-01-16T16:26:24.858+0100] {dag.py:3033} INFO - Sync 1 DAGs
[2024-01-16T16:26:24.867+0100] {logging_mixin.py:188} INFO - [2024-01-16T16:26:24.867+0100] {dag.py:3055} INFO - Creating ORM DAG for example_weekday_branch_operator
[2024-01-16T16:26:24.875+0100] {logging_mixin.py:188} INFO - [2024-01-16T16:26:24.875+0100] {dag.py:3820} INFO - Setting next_dagrun for example_weekday_branch_operator to 2024-01-15T00:00:00+00:00, run_after=2024-01-16T00:00:00+00:00
[2024-01-16T16:26:24.891+0100] {processor.py:183} INFO - Processing /home/ensai/Documents/DATAOPS/projet-dataops-conso-electricite/apache_venv/lib/python3.8/site-packages/airflow/example_dags/example_branch_day_of_week_operator.py took 0.150 seconds
[2024-01-16T16:27:23.692+0100] {processor.py:161} INFO - Started process (PID=30038) to work on /home/ensai/Documents/DATAOPS/projet-dataops-conso-electricite/apache_venv/lib/python3.8/site-packages/airflow/example_dags/example_branch_day_of_week_operator.py
[2024-01-16T16:27:23.695+0100] {processor.py:830} INFO - Processing file /home/ensai/Documents/DATAOPS/projet-dataops-conso-electricite/apache_venv/lib/python3.8/site-packages/airflow/example_dags/example_branch_day_of_week_operator.py for tasks to queue
[2024-01-16T16:27:23.696+0100] {logging_mixin.py:188} INFO - [2024-01-16T16:27:23.696+0100] {dagbag.py:538} INFO - Filling up the DagBag from /home/ensai/Documents/DATAOPS/projet-dataops-conso-electricite/apache_venv/lib/python3.8/site-packages/airflow/example_dags/example_branch_day_of_week_operator.py
[2024-01-16T16:27:23.706+0100] {processor.py:840} INFO - DAG(s) 'example_weekday_branch_operator' retrieved from /home/ensai/Documents/DATAOPS/projet-dataops-conso-electricite/apache_venv/lib/python3.8/site-packages/airflow/example_dags/example_branch_day_of_week_operator.py
[2024-01-16T16:27:23.727+0100] {logging_mixin.py:188} INFO - [2024-01-16T16:27:23.727+0100] {dag.py:3033} INFO - Sync 1 DAGs
[2024-01-16T16:27:23.753+0100] {logging_mixin.py:188} INFO - [2024-01-16T16:27:23.753+0100] {dag.py:3820} INFO - Setting next_dagrun for example_weekday_branch_operator to 2024-01-15T00:00:00+00:00, run_after=2024-01-16T00:00:00+00:00
[2024-01-16T16:27:23.771+0100] {processor.py:183} INFO - Processing /home/ensai/Documents/DATAOPS/projet-dataops-conso-electricite/apache_venv/lib/python3.8/site-packages/airflow/example_dags/example_branch_day_of_week_operator.py took 0.082 seconds
